[NAZWA_SESJI]
UKLAD2

[__________DANE_SI___________________]

[CZAS]
38235

[KROK]
382350

[LP----]__[-----------------------WSPOLZEDNE-XYZ-----------------------]__[-------------------------PREDKOSC-XYZ-----------------------]__[-----MASA-----------]__[-----PROMIEN--------]__[KOLOR_R_G_B-----------------]
00000       4.54718675e+007    -2.42382412e+006     0.00000000e+000        4.39968065e+002    -4.78472051e+002     0.00000000e+000         1.00000000e+030         4.00000000e+007         1e+000  0e+000  0e+000
00001       7.77024048e+007    -5.30312479e+007     0.00000000e+000       -2.50103624e+005    -1.59933589e+005     0.00000000e+000         1.00000000e+027         2.00000000e+007         1e+000  0e+000  0e+000
00002      -1.76195124e+008     2.26618930e+008     0.00000000e+000        9.16303756e+004     5.26690434e+004     0.00000000e+000         1.00000000e+027         2.00000000e+007         1e+000  1e+000  1e+000
00003      -2.35853572e+008     2.07075543e+008     0.00000000e+000        7.39137322e+004     8.21859303e+004     0.00000000e+000         1.00000000e+027         2.00000000e+007         1e+000  0e+000  1e+000
00004      -3.32989941e+008    -2.10333749e+007     0.00000000e+000       -3.61692123e+003     1.08182201e+005     0.00000000e+000         1.00000000e+027         2.00000000e+007         0e+000  1e+000  1e+000
00005       9.15254603e+007    -2.50560292e+008     0.00000000e+000       -1.43253484e+005    -3.68973639e+004     0.00000000e+000         1.00000000e+027         2.00000000e+007         0e+000  0e+000  1e+000
00006       2.29302376e+008    -5.45569655e+007     0.00000000e+000       -6.93616999e+004    -1.66256380e+005     0.00000000e+000         1.00000000e+027         2.00000000e+007         0e+000  0e+000  1e+000
00007      -1.37189763e+008     2.06905510e+008     0.00000000e+000        1.02812513e+005     7.30473386e+004     0.00000000e+000         1.00000000e+027         2.00000000e+007         1e+000  0e+000  0e+000
00008      -3.37239889e+007     5.58337811e+007     0.00000000e+000        1.78481357e+005     2.25186349e+005     0.00000000e+000         1.00000000e+027         2.00000000e+007         1e+000  0e+000  0e+000
00009       2.34512685e+008    -1.00024828e+007     0.00000000e+000       -3.62638957e+004    -1.74598299e+005     0.00000000e+000         1.00000000e+027         2.00000000e+007         1e+000  0e+000  0e+000
00010       1.94135767e+008    -4.02843319e+008     0.00000000e+000       -1.19167812e+005    -2.90473184e+004     0.00000000e+000         1.00000000e+027         2.00000000e+007         1e+000  1e+000  1e+000
00011       2.24680116e+008    -1.68783206e+008     0.00000000e+000       -6.94771325e+004    -1.29347646e+005     0.00000000e+000         1.00000000e+027         2.00000000e+007         1e+000  1e+000  1e+000
00012      -2.16582224e+008    -2.03988214e+008     0.00000000e+000       -7.90511375e+004     1.19011787e+005     0.00000000e+000         1.00000000e+027         2.00000000e+007         1e+000  0e+000  1e+000
00013      -1.56130484e+008     3.09077104e+008     0.00000000e+000        1.04610330e+005     8.07876332e+004     0.00000000e+000         1.00000000e+027         2.00000000e+007         0e+000  1e+000  1e+000
00014       1.03564271e+008     5.52536594e+008     0.00000000e+000        9.85024929e+004    -4.09610566e+004     0.00000000e+000         1.00000000e+027         2.00000000e+007         0e+000  1e+000  1e+000
00015      -3.97394125e+007     1.63641722e+007     0.00000000e+000        1.18621783e+005     2.34308327e+005     0.00000000e+000         1.00000000e+027         2.00000000e+007         0e+000  0e+000  1e+000
00016      -1.33222861e+008     2.98964832e+007     0.00000000e+000        3.00211890e+004     1.83907479e+005     0.00000000e+000         1.00000000e+027         2.00000000e+007         0e+000  0e+000  1e+000
00017       1.63035404e+008    -3.75716335e+008     0.00000000e+000       -1.25411451e+005    -3.38000499e+004     0.00000000e+000         1.00000000e+027         2.00000000e+007         1e+000  0e+000  0e+000
00018      -1.65633181e+008    -2.85018215e+008     0.00000000e+000       -8.11517071e+004     6.54830740e+004     0.00000000e+000         1.00000000e+027         2.00000000e+007         1e+000  1e+000  1e+000
00019       9.15834384e+007     3.16810395e+008     0.00000000e+000        1.22258302e+005    -2.67032211e+004     0.00000000e+000         1.00000000e+027         2.00000000e+007         1e+000  1e+000  1e+000
00020       3.84571719e+007    -6.20121605e+007     0.00000000e+000       -2.94786918e+005     3.43689930e+004     0.00000000e+000         1.00000000e+027         2.00000000e+007         1e+000  0e+000  1e+000
00021       2.06881741e+008    -3.48821310e+008     0.00000000e+000       -9.74593865e+004    -4.69592301e+004     0.00000000e+000         1.00000000e+027         2.00000000e+007         0e+000  1e+000  1e+000
00022      -5.95198067e+007    -4.94802308e+007     0.00000000e+000       -1.26886868e+005     1.90974657e+005     0.00000000e+000         1.00000000e+027         2.00000000e+007         0e+000  1e+000  1e+000
00023       1.36057196e+008     3.04065841e+008     0.00000000e+000        1.22215662e+005    -6.74816077e+004     0.00000000e+000         1.00000000e+027         2.00000000e+007         0e+000  0e+000  1e+000
00024       1.13092951e+008    -3.70071784e+008     0.00000000e+000       -1.11043764e+005    -5.56569992e+004     0.00000000e+000         1.00000000e+027         2.00000000e+007         0e+000  0e+000  1e+000
