[NAZWA_SESJI]
UKLAD2

[__________DANE_SI___________________]

[CZAS]
6205

[KROK]
62050

[LP----]__[-----------------------WSPOLZEDNE-XYZ-----------------------]__[-------------------------PREDKOSC-XYZ-----------------------]__[-----MASA-----------]__[-----PROMIEN--------]__[KOLOR_R_G_B-----------------]
00000       9.13690253e+007    -3.84800580e+006     0.00000000e+000       -8.19308164e+001     1.83537819e+001     0.00000000e+000         1.00000000e+030         4.00000000e+007         1e+000  0e+000  0e+000
00001       3.91859707e+007    -3.34511474e+007     0.00000000e+000       -1.00563725e+004     2.15764796e+004     0.00000000e+000         1.00000000e+027         2.00000000e+007         1e+000  0e+000  0e+000
00002       3.21794562e+007     5.92787661e+006     0.00000000e+000        6.63239128e+003     2.32288289e+004     0.00000000e+000         1.00000000e+027         2.00000000e+007         1e+000  1e+000  1e+000
00003       5.68993320e+007     8.06030804e+007     0.00000000e+000        3.45315844e+004     1.19473710e+004     0.00000000e+000         1.00000000e+027         2.00000000e+007         1e+000  0e+000  1e+000
00004       1.46157982e+008    -7.67679386e+007     0.00000000e+000       -2.92209942e+004    -1.92811249e+004     0.00000000e+000         1.00000000e+027         2.00000000e+007         0e+000  1e+000  1e+000
00005       3.02707649e+008    -9.38622431e+008     0.00000000e+000       -4.12036768e+004    -3.27876059e+004     0.00000000e+000         1.00000000e+027         2.00000000e+007         0e+000  0e+000  1e+000
00006       1.80997209e+008    -3.18106877e+007     0.00000000e+000       -1.28202278e+004    -3.59408163e+004     0.00000000e+000         1.00000000e+027         2.00000000e+007         0e+000  0e+000  1e+000
00007       1.41339563e+008    -3.70566880e+007     0.00000000e+000       -1.46315005e+004    -1.68030596e+004     0.00000000e+000         1.00000000e+027         2.00000000e+007         1e+000  0e+000  0e+000
00008       1.09357779e+008    -6.10799985e+007     0.00000000e+000       -2.23293331e+004    -4.70652517e+003     0.00000000e+000         1.00000000e+027         2.00000000e+007         1e+000  0e+000  0e+000
00009       1.26817056e+008     4.45632355e+007     0.00000000e+000        1.78169702e+004    -1.62092598e+004     0.00000000e+000         1.00000000e+027         2.00000000e+007         1e+000  0e+000  0e+000
00010       1.13386166e+008     8.74144184e+007     0.00000000e+000        3.48153423e+004    -1.08564153e+004     0.00000000e+000         1.00000000e+027         2.00000000e+007         1e+000  1e+000  1e+000
00011       1.51102208e+008     1.72731861e+006     0.00000000e+000       -2.40803650e+002    -2.34986719e+004     0.00000000e+000         1.00000000e+027         2.00000000e+007         1e+000  1e+000  1e+000
00012       1.98741140e+007     6.55011194e+007     0.00000000e+000        2.87905602e+004     2.64930808e+004     0.00000000e+000         1.00000000e+027         2.00000000e+007         1e+000  0e+000  1e+000
00013      -4.85783187e+006    -9.16466448e+006     0.00000000e+000        8.32456968e+001     3.74081457e+004     0.00000000e+000         1.00000000e+027         2.00000000e+007         0e+000  1e+000  1e+000
00014       3.23386648e+007    -7.47763709e+007     0.00000000e+000       -2.63871432e+004     2.38304467e+004     0.00000000e+000         1.00000000e+027         2.00000000e+007         0e+000  1e+000  1e+000
00015       1.14151885e+008    -1.00794188e+008     0.00000000e+000       -3.85235279e+004    -6.57178122e+003     0.00000000e+000         1.00000000e+027         2.00000000e+007         0e+000  0e+000  1e+000
00016       1.51697859e+008     7.58886576e+007     0.00000000e+000        3.01286578e+004    -2.55745373e+004     0.00000000e+000         1.00000000e+027         2.00000000e+007         0e+000  0e+000  1e+000
00017       6.93752621e+007    -5.96635946e+007     0.00000000e+000       -2.11449353e+004     1.09317971e+004     0.00000000e+000         1.00000000e+027         2.00000000e+007         1e+000  0e+000  0e+000
00018       5.14824709e+007     4.09792508e+007     0.00000000e+000        1.89385762e+004     1.38078898e+004     0.00000000e+000         1.00000000e+027         2.00000000e+007         1e+000  1e+000  1e+000
00019       8.85225359e+007     5.60829468e+007     0.00000000e+000        2.30166844e+004    -1.48672815e+003     0.00000000e+000         1.00000000e+027         2.00000000e+007         1e+000  1e+000  1e+000
00020       5.85239461e+005     3.04753306e+007     0.00000000e+000        1.56372077e+004     3.52699744e+004     0.00000000e+000         1.00000000e+027         2.00000000e+007         1e+000  0e+000  1e+000
00021       7.41668429e+007    -9.93775474e+007     0.00000000e+000       -3.78466703e+004     8.92240248e+003     0.00000000e+000         1.00000000e+027         2.00000000e+007         0e+000  1e+000  1e+000
00022       2.13399685e+006    -4.85336696e+007     0.00000000e+000       -1.60455941e+004     3.57228367e+004     0.00000000e+000         1.00000000e+027         2.00000000e+007         0e+000  1e+000  1e+000
00023       1.90761255e+008     6.95045497e+006     0.00000000e+000        2.39369055e+003    -3.99541606e+004     0.00000000e+000         1.00000000e+027         2.00000000e+007         0e+000  0e+000  1e+000
00024       1.66396649e+008     3.86752163e+007     0.00000000e+000        1.55966855e+004    -2.98243491e+004     0.00000000e+000         1.00000000e+027         2.00000000e+007         0e+000  0e+000  1e+000
